[gd_scene load_steps=8 format=3 uid="uid://ckrvm2cpdr5qj"]

[ext_resource type="Script" path="res://Script/chicken_prop.gd" id="1_adpd4"]
[ext_resource type="Texture2D" uid="uid://cl2t6tgcb3msq" path="res://Assets/Perfect_Chicken.png" id="1_v7frf"]

[sub_resource type="StyleBoxTexture" id="StyleBoxTexture_p35m0"]

[sub_resource type="StyleBoxTexture" id="StyleBoxTexture_mwvve"]
texture = ExtResource("1_v7frf")

[sub_resource type="StyleBoxTexture" id="StyleBoxTexture_pl5ae"]

[sub_resource type="StyleBoxTexture" id="StyleBoxTexture_c8gbp"]

[sub_resource type="StyleBoxTexture" id="StyleBoxTexture_nm66c"]

[node name="Chicken_prop" type="Sprite2D"]
scale = Vector2(5, 5)
texture = ExtResource("1_v7frf")
script = ExtResource("1_adpd4")

[node name="Button" type="Button" parent="."]
modulate = Color(1, 1, 0.0705882, 0.494118)
anchors_preset = 15
anchor_right = 1.0
anchor_bottom = 1.0
offset_left = -16.0
offset_top = -16.0
offset_right = -16.0
offset_bottom = -16.0
grow_horizontal = 2
grow_vertical = 2
theme_override_styles/normal = SubResource("StyleBoxTexture_p35m0")
theme_override_styles/hover = SubResource("StyleBoxTexture_mwvve")
theme_override_styles/pressed = SubResource("StyleBoxTexture_pl5ae")
theme_override_styles/disabled = SubResource("StyleBoxTexture_c8gbp")
theme_override_styles/focus = SubResource("StyleBoxTexture_nm66c")

[connection signal="pressed" from="Button" to="." method="_on_button_pressed"]
