[gd_scene load_steps=4 format=3 uid="uid://dedf7f2ysebli"]

[ext_resource type="Texture2D" uid="uid://d0m3ulmbpr5nj" path="res://Assets/Sky.png" id="1_1dabn"]
[ext_resource type="Texture2D" uid="uid://b78iakwwodol0" path="res://Assets/Mountain.png" id="2_m5ur6"]
[ext_resource type="AudioStream" uid="uid://eju2lky0d8es" path="res://Audio/524346__javierserrat__birds.wav" id="3_p88ti"]

[node name="Mountains" type="Control"]
layout_mode = 3
anchors_preset = 15
anchor_right = 1.0
anchor_bottom = 1.0
grow_horizontal = 2
grow_vertical = 2

[node name="Sky" type="TextureRect" parent="."]
layout_mode = 1
anchors_preset = 15
anchor_right = 1.0
anchor_bottom = 1.0
grow_horizontal = 2
grow_vertical = 2
texture = ExtResource("1_1dabn")

[node name="Mountain" type="TextureRect" parent="."]
layout_mode = 1
anchors_preset = 2
anchor_top = 1.0
anchor_bottom = 1.0
offset_left = -14.0
offset_top = -309.0
offset_right = 103.0
offset_bottom = -277.0
grow_vertical = 0
scale = Vector2(10, 10)
texture = ExtResource("2_m5ur6")
stretch_mode = 1

[node name="AudioStreamPlayer2D" type="AudioStreamPlayer2D" parent="."]
stream = ExtResource("3_p88ti")
autoplay = true
